"#","Date Submitted","Name","Email","Message"
"163","28/02/2017","Olushola Kofoworola Joseph","kofoworolaolusholajoseph@yahoo.com","Good afternoon sir/Ma ,
Please how do I apply for code Lagos as an individual?"
