"#","Date Submitted","Name","Email","Message"
"347","31/05/2017","Abdulraheem Abdulkabir","aaoabdul@gmail.com","I applied as a code Lagos facilitator and completed an online test but I'm yet to get a feedback from the team. I would appreciate if i can be briefed on why i'm yet or wasn't contacted for the facilitator training.
I showed interest in teaching coding in Python and probably any other IT security and networking related courses.
I look forward to a response from the team any time soon.

Regards,

Abdulraheem O. Abdulkabir
"
